<?xml version="1.0" encoding="UTF-8" standalone="no"?>
<svg width="86px" height="86px" viewBox="0 0 86 86" version="1.1" xmlns="http://www.w3.org/2000/svg" xmlns:xlink="http://www.w3.org/1999/xlink">
    <!-- Generator: Sketch 39.1 (31720) - http://www.bohemiancoding.com/sketch -->
    <title>Play</title>
    <desc>Created with Sketch.</desc>
    <defs></defs>
    <g id="Page-1" stroke="none" stroke-width="1" fill="none" fill-rule="evenodd">
        <g id="General" transform="translate(-142.000000, -1230.000000)">
            <g id="Play" transform="translate(144.000000, 1232.000000)">
                <circle id="Oval" stroke="#FFFFFF" stroke-width="3" cx="41" cy="41" r="41"></circle>
                <path d="M59.8705495,42.9693356 L30.4004017,59.6914134 C29.6993692,60.1026509 28.8357132,60.1028762 28.134473,59.6920045 C27.4332329,59.2811327 27.0008298,58.5215184 27,57.6990446 L27,24.3009554 C27.0008298,23.4784816 27.4332329,22.7188673 28.134473,22.3079955 C28.8357132,21.8971238 29.6993692,21.8973491 30.4004017,22.3085866 L59.8705495,38.9845981 C60.569677,39.3966588 61,40.1557555 61,40.9769668 C61,41.7981782 60.569677,42.5572749 59.8705495,42.9693356 L59.8705495,42.9693356 Z" id="Shape" fill="#FFFFFF"></path>
            </g>
        </g>
    </g>
</svg>