<!DOCTYPE svg PUBLIC "-//W3C//DTD SVG 1.0//EN" "http://www.w3.org/TR/2001/REC-SVG-20010904/DTD/svg10.dtd">
<svg version="1.0" id="Layer_1" xmlns="http://www.w3.org/2000/svg" xmlns:xlink="http://www.w3.org/1999/xlink" x="0px" y="0px"
	 width="52px" height="52px" viewBox="0 0 52 52" enable-background="new 0 0 52 52" xml:space="preserve">
<g>
	<defs>
		<circle id="SVGID_1_" cx="26" cy="26" r="25"/>
	</defs>
	<clipPath id="SVGID_2_">
		<use xlink:href="#SVGID_1_"  overflow="visible"/>
	</clipPath>
	<g clip-path="url(#SVGID_2_)">
		<defs>
			<rect id="SVGID_3_" x="-285" y="-2465" width="375" height="3083"/>
		</defs>
		<clipPath id="SVGID_4_">
			<use xlink:href="#SVGID_3_"  overflow="visible"/>
		</clipPath>
		<rect x="-4" y="-4" clip-path="url(#SVGID_4_)" fill="#FFFFFF" width="60" height="60"/>
	</g>
</g>
<g>
	<defs>
		<path id="SVGID_5_" d="M32.239,26.475h-4.355v15.54h-6.458v-15.54h-3.075V20.99h3.07v-3.556c0-2.545,1.208-6.517,6.52-6.517
			l4.78,0.022v5.334h-3.472c-0.565,0-1.369,0.28-1.369,1.493v3.229h4.922l-0.567,5.485L32.239,26.475z M26,0C11.639,0,0,11.643,0,26
			c0,14.359,11.639,26,26,26c14.359,0,26-11.641,26-26C52,11.643,40.359,0,26,0z"/>
	</defs>
	<clipPath id="SVGID_6_">
		<use xlink:href="#SVGID_5_"  overflow="visible"/>
	</clipPath>
	<g clip-path="url(#SVGID_6_)">
		<defs>
			<rect id="SVGID_7_" x="-285" y="-2465" width="375" height="3083"/>
		</defs>
		<clipPath id="SVGID_8_">
			<use xlink:href="#SVGID_7_"  overflow="visible"/>
		</clipPath>
		<rect x="-5" y="-5" clip-path="url(#SVGID_8_)" fill="#5781D3" width="62" height="62"/>
	</g>
</g>
</svg>